top.vcd
$comment Generated by Amaranth $end
$date 2025-02-03 23:11:39.261880 $end
$timescale 1 fs $end
$scope module bench $end
$scope module top $end
$var wire 1 ! clk $end
$var wire 1 " rst $end
$var wire 3 # Instruction $end
$var wire 16 $ EXEC $end
$var wire 5 % Delay_Sideset $end
$var wire 5 & Operand_4_0 $end
$var wire 3 ' Operand_7_5 $end
$var string 1 ( fsm_state $end
$var wire 5 ) PC $end
$upscope $end
$upscope $end
$enddefinitions $end
#0
$dumpvars
0!
0"
b0 #
b0 $
b0 %
b0 &
b0 '
sFETCH/0 (
b0 )
$end
#500000000
1!
sEXEC/1 (
b1110000000000001 $
b111 #
b1 &
#1000000000
0!
#1500000000
1!
sNEXT/2 (
#2000000000
0!
#2500000000
1!
b1 )
sFETCH/0 (
#3000000000
0!
#3500000000
1!
sEXEC/1 (
b1110000000000000 $
b0 &
#4000000000
0!
#4500000000
1!
sNEXT/2 (
#5000000000
0!
#5500000000
1!
b0 )
sFETCH/0 (
#6000000000
0!
#6500000000
1!
sEXEC/1 (
b1110000000000001 $
b1 &
#7000000000
0!
#7500000000
1!
sNEXT/2 (
#8000000000
0!
#8500000000
1!
b1 )
sFETCH/0 (
#9000000000
0!
#9500000000
1!
sEXEC/1 (
b1110000000000000 $
b0 &
#10000000000
0!
#10500000000
1!
sNEXT/2 (
#11000000000
0!
#11500000000
1!
b0 )
sFETCH/0 (
#12000000000
0!
#12500000000
1!
sEXEC/1 (
b1110000000000001 $
b1 &
#13000000000
0!
#13500000000
1!
sNEXT/2 (
#14000000000
0!
#14500000000
1!
b1 )
sFETCH/0 (
#15000000000
0!
#15500000000
1!
sEXEC/1 (
b1110000000000000 $
b0 &
#16000000000
0!
#16500000000
1!
sNEXT/2 (
#17000000000
0!
#17500000000
1!
b0 )
sFETCH/0 (
#18000000000
0!
#18500000000
1!
sEXEC/1 (
b1110000000000001 $
b1 &
#19000000000
0!
#19500000000
1!
sNEXT/2 (
#20000000000
0!
#20500000000
1!
b1 )
sFETCH/0 (
#21000000000
0!
#21500000000
1!
sEXEC/1 (
b1110000000000000 $
b0 &
#22000000000
0!
#22500000000
1!
sNEXT/2 (
#23000000000
0!
#23500000000
1!
b0 )
sFETCH/0 (
#24000000000
0!
#24500000000
1!
sEXEC/1 (
b1110000000000001 $
b1 &
#25000000000
0!
#25500000000
1!
sNEXT/2 (
#26000000000
0!
#26500000000
1!
b1 )
sFETCH/0 (
#27000000000
0!
#27500000000
1!
sEXEC/1 (
b1110000000000000 $
b0 &
#28000000000
0!
#28500000000
1!
sNEXT/2 (
#29000000000
0!
#29500000000
1!
b0 )
sFETCH/0 (
#30000000000
0!
#30500000000
1!
sEXEC/1 (
b1110000000000001 $
b1 &
#31000000000
0!
#31500000000
1!
sNEXT/2 (
#32000000000
0!
#32500000000
1!
b1 )
sFETCH/0 (
#33000000000
0!
#33500000000
1!
sEXEC/1 (
b1110000000000000 $
b0 &
#34000000000
0!
#34500000000
1!
sNEXT/2 (
#35000000000
0!
#35500000000
1!
b0 )
sFETCH/0 (
#36000000000
0!
#36500000000
1!
sEXEC/1 (
b1110000000000001 $
b1 &
#37000000000
0!
#37500000000
1!
sNEXT/2 (
#38000000000
0!
#38500000000
1!
b1 )
sFETCH/0 (
#39000000000
0!
#39500000000
1!
sEXEC/1 (
b1110000000000000 $
b0 &
#40000000000
0!
#40500000000
1!
sNEXT/2 (
#41000000000
0!
#41500000000
1!
b0 )
sFETCH/0 (
#42000000000
0!
#42500000000
1!
sEXEC/1 (
b1110000000000001 $
b1 &
#43000000000
0!
#43500000000
1!
sNEXT/2 (
#44000000000
0!
#44500000000
1!
b1 )
sFETCH/0 (
#45000000000
0!
#45500000000
1!
sEXEC/1 (
b1110000000000000 $
b0 &
#46000000000
0!
#46500000000
1!
sNEXT/2 (
#47000000000
0!
#47500000000
1!
b0 )
sFETCH/0 (
#48000000000
0!
#48500000000
1!
sEXEC/1 (
b1110000000000001 $
b1 &
#49000000000
0!
#49500000000
1!
sNEXT/2 (
#50000000000
0!
#50500000000
1!
b1 )
sFETCH/0 (
#51000000000
0!
#51500000000
1!
sEXEC/1 (
b1110000000000000 $
b0 &
#52000000000
0!
#52500000000
1!
sNEXT/2 (
#53000000000
0!
#53500000000
1!
b0 )
sFETCH/0 (
#54000000000
0!
#54500000000
1!
sEXEC/1 (
b1110000000000001 $
b1 &
#55000000000
0!
#55500000000
1!
sNEXT/2 (
#56000000000
0!
#56500000000
1!
b1 )
sFETCH/0 (
#57000000000
0!
#57500000000
1!
sEXEC/1 (
b1110000000000000 $
b0 &
#58000000000
0!
#58500000000
1!
sNEXT/2 (
#59000000000
0!
#59500000000
1!
b0 )
sFETCH/0 (
#60000000000
0!
#60500000000
1!
sEXEC/1 (
b1110000000000001 $
b1 &
#61000000000
0!
#61500000000
1!
sNEXT/2 (
#62000000000
0!
#62500000000
1!
b1 )
sFETCH/0 (
#63000000000
0!
#63500000000
1!
sEXEC/1 (
b1110000000000000 $
b0 &
#64000000000
0!
#64500000000
1!
sNEXT/2 (
#65000000000
0!
#65500000000
1!
b0 )
sFETCH/0 (
#66000000000
0!
#66500000000
1!
sEXEC/1 (
b1110000000000001 $
b1 &
#67000000000
0!
#67500000000
1!
sNEXT/2 (
#68000000000
0!
#68500000000
1!
b1 )
sFETCH/0 (
#69000000000
0!
#69500000000
1!
sEXEC/1 (
b1110000000000000 $
b0 &
#70000000000
0!
#70500000000
1!
sNEXT/2 (
#71000000000
0!
#71500000000
1!
b0 )
sFETCH/0 (
#72000000000
0!
#72500000000
1!
sEXEC/1 (
b1110000000000001 $
b1 &
#73000000000
0!
#73500000000
1!
sNEXT/2 (
#74000000000
0!
#74500000000
1!
b1 )
sFETCH/0 (
#75000000000
0!
#75500000000
1!
sEXEC/1 (
b1110000000000000 $
b0 &
#76000000000
0!
#76500000000
1!
sNEXT/2 (
#77000000000
0!
#77500000000
1!
b0 )
sFETCH/0 (
#78000000000
0!
#78500000000
1!
sEXEC/1 (
b1110000000000001 $
b1 &
#79000000000
0!
#79500000000
1!
sNEXT/2 (
#80000000000
0!
#80500000000
1!
b1 )
sFETCH/0 (
#81000000000
0!
#81500000000
1!
sEXEC/1 (
b1110000000000000 $
b0 &
#82000000000
0!
#82500000000
1!
sNEXT/2 (
#83000000000
0!
#83500000000
1!
b0 )
sFETCH/0 (
#84000000000
0!
#84500000000
1!
sEXEC/1 (
b1110000000000001 $
b1 &
#85000000000
0!
#85500000000
1!
sNEXT/2 (
#86000000000
0!
#86500000000
1!
b1 )
sFETCH/0 (
#87000000000
0!
#87500000000
1!
sEXEC/1 (
b1110000000000000 $
b0 &
#88000000000
0!
#88500000000
1!
sNEXT/2 (
#89000000000
0!
#89500000000
1!
b0 )
sFETCH/0 (
#90000000000
0!
#90500000000
1!
sEXEC/1 (
b1110000000000001 $
b1 &
#91000000000
0!
#91500000000
1!
sNEXT/2 (
#92000000000
0!
#92500000000
1!
b1 )
sFETCH/0 (
#93000000000
0!
#93500000000
1!
sEXEC/1 (
b1110000000000000 $
b0 &
#94000000000
0!
#94500000000
1!
sNEXT/2 (
#95000000000
0!
#95500000000
1!
b0 )
sFETCH/0 (
#96000000000
0!
#96500000000
1!
sEXEC/1 (
b1110000000000001 $
b1 &
#97000000000
0!
#97500000000
1!
sNEXT/2 (
#98000000000
0!
#98500000000
1!
b1 )
sFETCH/0 (
#99000000000
0!
#99500000000
1!
sEXEC/1 (
b1110000000000000 $
b0 &
